<?xml version="1.0" encoding="UTF-8" standalone="no"?>
<!-- Created with Inkscape (http://www.inkscape.org/) -->

<svg
   xmlns:dc="http://purl.org/dc/elements/1.1/"
   xmlns:cc="http://creativecommons.org/ns#"
   xmlns:rdf="http://www.w3.org/1999/02/22-rdf-syntax-ns#"
   xmlns:svg="http://www.w3.org/2000/svg"
   xmlns="http://www.w3.org/2000/svg"
   xmlns:sodipodi="http://sodipodi.sourceforge.net/DTD/sodipodi-0.dtd"
   xmlns:inkscape="http://www.inkscape.org/namespaces/inkscape"
   width="1cm"
   height="1cm"
   viewBox="0 0 8.0000002 8.0000002"
   version="1.1"
   id="svg4691"
   inkscape:version="0.92.2 2405546, 2018-03-11"
   sodipodi:docname="flattr.svg">
  <defs
     id="defs4685" />
  <sodipodi:namedview
     id="base"
     pagecolor="#2f2f2f"
     bordercolor="#666666"
     borderopacity="1.0"
     inkscape:pageopacity="0"
     inkscape:pageshadow="2"
     inkscape:zoom="11.2"
     inkscape:cx="-7.1362382"
     inkscape:cy="15.363069"
     inkscape:document-units="mm"
     inkscape:current-layer="layer1"
     showgrid="false"
     units="cm"
     scale-x="0.8"
     inkscape:window-width="1920"
     inkscape:window-height="1052"
     inkscape:window-x="0"
     inkscape:window-y="28"
     inkscape:window-maximized="1" />
  <metadata
     id="metadata4688">
    <rdf:RDF>
      <cc:Work
         rdf:about="">
        <dc:format>image/svg+xml</dc:format>
        <dc:type
           rdf:resource="http://purl.org/dc/dcmitype/StillImage" />
        <dc:title />
      </cc:Work>
    </rdf:RDF>
  </metadata>
  <g
     inkscape:label="Layer 1"
     inkscape:groupmode="layer"
     id="layer1"
     transform="translate(0,-287)">
    <g
       id="g24868"
       transform="matrix(0.01137769,0,0,0.01137769,3.0476305,289.29334)">
      <path
         id="path24824"
         d="m -126.585,150.00012 c 0,-115.999997 94.29,-210.289997 210.29,-210.289997 1,0 83.39,0 113.64,0.05 l -60.94,60.94 28,28 125.61,-128.7 h -82.31 -124 a 250,250 0 0 0 -250,249.999997 v 194.4 l 39.78,-36.64 v -2 c -0.04,-5.09 -0.07,-154.26 -0.07,-155.76 z"
         data-v-c3786932=""
         inkscape:connector-curvature="0"
         style="fill:#fbfffe;fill-opacity:1" />
      <path
         id="path24826"
         d="m 333.705,-44.409877 -39.79,36.65 v 2 c 0,5.09 0.07,154.259997 0.07,155.759997 0,116 -94.34,210.29 -210.29,210.29 -1,0 -83.39,0 -113.64,-0.05 l 60.95,-60.94 -28,-28 -125.61,128.7 h 82.31 124 a 250,250 0 0 0 250,-250 z"
         data-v-c3786932=""
         inkscape:connector-curvature="0"
         style="fill:#ffffff;fill-opacity:1" />
    </g>
  </g>
</svg>
