<?xml version="1.0" encoding="UTF-8" standalone="no"?>
<!-- Created with Inkscape (http://www.inkscape.org/) -->

<svg
   xmlns:dc="http://purl.org/dc/elements/1.1/"
   xmlns:cc="http://creativecommons.org/ns#"
   xmlns:rdf="http://www.w3.org/1999/02/22-rdf-syntax-ns#"
   xmlns:svg="http://www.w3.org/2000/svg"
   xmlns="http://www.w3.org/2000/svg"
   xmlns:sodipodi="http://sodipodi.sourceforge.net/DTD/sodipodi-0.dtd"
   xmlns:inkscape="http://www.inkscape.org/namespaces/inkscape"
   width="1cm"
   height="1cm"
   viewBox="0 0 8.0000002 8.0000002"
   version="1.1"
   id="svg4691"
   inkscape:version="0.92.2 2405546, 2018-03-11"
   sodipodi:docname="icL.svg">
  <defs
     id="defs4685" />
  <sodipodi:namedview
     id="base"
     pagecolor="#2f2f2f"
     bordercolor="#666666"
     borderopacity="1.0"
     inkscape:pageopacity="0"
     inkscape:pageshadow="2"
     inkscape:zoom="11.2"
     inkscape:cx="16.167333"
     inkscape:cy="15.363069"
     inkscape:document-units="mm"
     inkscape:current-layer="layer1"
     showgrid="false"
     units="cm"
     scale-x="0.8"
     inkscape:window-width="1920"
     inkscape:window-height="1052"
     inkscape:window-x="0"
     inkscape:window-y="28"
     inkscape:window-maximized="1" />
  <metadata
     id="metadata4688">
    <rdf:RDF>
      <cc:Work
         rdf:about="">
        <dc:format>image/svg+xml</dc:format>
        <dc:type
           rdf:resource="http://purl.org/dc/dcmitype/StillImage" />
        <dc:title></dc:title>
      </cc:Work>
    </rdf:RDF>
  </metadata>
  <g
     inkscape:label="Layer 1"
     inkscape:groupmode="layer"
     id="layer1"
     transform="translate(0,-287)">
    <circle
       r="0.81396252"
       cy="291"
       cx="4"
       id="path827"
       style="opacity:1;fill:#fdfeff;fill-opacity:1;stroke:none;stroke-width:0.20008147;stroke-linejoin:bevel;stroke-miterlimit:4;stroke-dasharray:none;stroke-opacity:1" />
    <path
       sodipodi:open="true"
       d="m 5.3565212,293.84887 a 0.81396252,0.81396252 0 0 1 -0.7049123,-0.40698 0.81396252,0.81396252 0 0 1 0,-0.81396 0.81396252,0.81396252 0 0 1 0.7049122,-0.40698"
       sodipodi:end="4.712389"
       sodipodi:start="1.5707963"
       sodipodi:ry="0.81396252"
       sodipodi:rx="0.81396252"
       sodipodi:cy="293.03491"
       sodipodi:cx="5.3565211"
       sodipodi:type="arc"
       id="path829"
       style="opacity:1;fill:none;fill-opacity:1;stroke:#fcfcfc;stroke-width:0.27132088;stroke-linejoin:bevel;stroke-miterlimit:4;stroke-dasharray:none;stroke-opacity:1" />
    <path
       sodipodi:nodetypes="ccc"
       inkscape:connector-curvature="0"
       id="path831"
       d="m 5.7903301,289.77915 -0.026831,4.06972 h 0.5360642"
       style="opacity:1;fill:none;fill-opacity:1;stroke:#fcfcfc;stroke-width:0.27132088;stroke-linejoin:round;stroke-miterlimit:4;stroke-dasharray:none;stroke-opacity:1" />
    <path
       inkscape:connector-curvature="0"
       id="path833"
       d="m 3.9999988,292.3566 v 1.62793"
       style="opacity:1;fill:none;fill-opacity:1;stroke:#fcfcfc;stroke-width:0.27132088;stroke-linejoin:bevel;stroke-miterlimit:4;stroke-dasharray:none;stroke-opacity:1" />
    <circle
       r="3.6628313"
       cy="291"
       cx="4"
       id="path864"
       style="opacity:1;fill:none;fill-opacity:1;stroke:#ffffff;stroke-width:0.27132088;stroke-linejoin:round;stroke-miterlimit:4;stroke-dasharray:none;stroke-opacity:1" />
  </g>
</svg>
